^D:\DEVELOPMENT\C\PROJECTS\ALGORITHMS\ALGORITHMS\ALGORITHMS\DEBUG\ALGORITHMS.EXE.EMBED.MANIFEST.RES|D:\DEVELOPMENT\C\PROJECTS\ALGORITHMS\ALGORITHMS\ALGORITHMS\DEBUG\ALGORITHMS.OBJ|D:\DEVELOPMENT\C\PROJECTS\ALGORITHMS\ALGORITHMS\ALGORITHMS\DEBUG\HEAP.OBJ|D:\DEVELOPMENT\C\PROJECTS\ALGORITHMS\ALGORITHMS\ALGORITHMS\DEBUG\HEAPSORT.OBJ|D:\DEVELOPMENT\C\PROJECTS\ALGORITHMS\ALGORITHMS\ALGORITHMS\DEBUG\INSERTIONSORT.OBJ|D:\DEVELOPMENT\C\PROJECTS\ALGORITHMS\ALGORITHMS\ALGORITHMS\DEBUG\MERGESORT.OBJ
D:\DEVELOPMENT\C\PROJECTS\ALGORITHMS\ALGORITHMS\DEBUG\ALGORITHMS.ILK
D:\DEVELOPMENT\C\PROJECTS\ALGORITHMS\ALGORITHMS\DEBUG\ALGORITHMS.EXE
D:\DEVELOPMENT\C\PROJECTS\ALGORITHMS\ALGORITHMS\ALGORITHMS\DEBUG\ALGORITHMS.EXE.INTERMEDIATE.MANIFEST
D:\DEVELOPMENT\C\PROJECTS\ALGORITHMS\ALGORITHMS\DEBUG\ALGORITHMS.PDB
